[
 {
    "title":"RSS",
    "drawable":"",
    "submenu":"",
    "iap":false,
    "tabs":[
      {
        "title":"Liputan6.com",
        "provider":"rss",
        "arguments":[
          "https://www.liputan6.com/bola/feed/rss"
        ]
      },
      {
        "title":"Detik.com",
        "provider":"rss",
        "arguments":[
          "http://rss.detik.com/index.php/sepakbola"
        ]
      },
      {
        "title":"Antaranews.com",
        "provider":"rss",
        "arguments":[
          "https://www.antaranews.com/rss/olahraga-sepakbola"
        ]
      },
      {
        "title":"Bola.net",
        "provider":"rss",
        "arguments":[
          "https://www.bola.net/feed/"
        ]
      },
      {
        "title":"Goal.com",
        "provider":"rss",
        "arguments":[
          "http://www.goal.com/id-ID/feeds/news"
        ]
      },
      {
        "title":"Kompas.com",
        "provider":"rss",
        "arguments":[
          "https://queryfeed.net/twitter?q=from%3Akompasbola"
        ]
      },
      {
        "title":"Viva.co.id",
        "provider":"rss",
        "arguments":[
          "https://queryfeed.net/twitter?q=from%3Avivabola"
        ]
      },
      {
        "title":"Panditfootball.com",
        "provider":"rss",
        "arguments":[
          "https://panditfootball.com/terbaru/feed"
        ]
      }
    ]
  }
]
